{
  "project_info": {
    "project_number": "1007924788527",
    "firebase_url": "https://party-f0fc8.firebaseio.com",
    "project_id": "party-f0fc8",
    "storage_bucket": "party-f0fc8.appspot.com"
  },
  "client": [
    {
      "client_info": {
        "mobilesdk_app_id": "1:1007924788527:android:36208d2a1ae5c99469f5da",
        "android_client_info": {
          "package_name": "com.ocg.party"
        }
      },
      "oauth_client": [
        {
          "client_id": "1007924788527-ka3ueedcoq2cqec5v7rctaf7qu80tknl.apps.googleusercontent.com",
          "client_type": 1,
          "android_info": {
            "package_name": "com.ocg.party",
            "certificate_hash": "070f0f89e9f8130af7267f45fc98f92e8f8639f8"
          }
        },
        {
          "client_id": "1007924788527-04nc3p0eln4nd14o15rnnqpffbrs5vde.apps.googleusercontent.com",
          "client_type": 3
        }
      ],
      "api_key": [
        {
          "current_key": "AIzaSyDwDP4yU6Y9XYVJtRgxgArEzBYYfnUtu94"
        }
      ],
      "services": {
        "appinvite_service": {
          "other_platform_oauth_client": [
            {
              "client_id": "1007924788527-04nc3p0eln4nd14o15rnnqpffbrs5vde.apps.googleusercontent.com",
              "client_type": 3
            },
            {
              "client_id": "1007924788527-nipksec5phgsrft1dkk1ntf3ptepbt30.apps.googleusercontent.com",
              "client_type": 2,
              "ios_info": {
                "bundle_id": "com.ocg.party"
              }
            }
          ]
        }
      }
    }
  ],
  "configuration_version": "1"
}